# 3ds Max Wavefront OBJ Exporter v0.97b - (c)2007 guruware
# File Created: 28.05.2018 15:58:17

mtllib ????\kiff???\??\kiff(wall down.mtl

#
# object Object001
#

v  102.5146 19.2727 53.0840
v  102.5146 19.2727 -62.5881
v  -54.0847 19.2727 -62.5881
v  -54.0847 19.2727 53.0840
v  -54.0847 18.2727 -62.5881
v  102.5146 18.2727 -62.5881
v  102.5146 18.2727 53.0840
v  -54.0847 18.2727 53.0840
# 8 vertices

vn 0.0000 1.0000 -0.0000
vn 0.0000 -1.0000 -0.0000
vn 1.0000 0.0000 -0.0000
vn 0.0000 0.0000 -1.0000
vn -1.0000 0.0000 -0.0000
vn 0.0000 0.0000 1.0000
# 6 vertex normals

vt 0.2595 0.6555 0.0000
vt 0.1330 0.6555 0.0000
vt 0.1330 0.5850 0.0000
vt 0.2595 0.5850 0.0000
# 4 texture coords

g Object001
usemtl wire_143225087
f 1/1/1 2/2/1 3/3/1 4/4/1 
f 5/3/2 6/2/2 7/1/2 8/4/2 
f 2/2/3 1/1/3 7/1/3 6/2/3 
f 3/3/4 2/2/4 6/2/4 5/3/4 
f 4/4/5 3/3/5 5/3/5 8/4/5 
f 1/1/6 4/4/6 8/4/6 7/1/6 
# 6 polygons

#
# object window
#

v  43.9562 14.6951 -29.8620
v  6.7816 14.6951 -29.8620
v  6.7816 2.4810 -29.8620
v  44.0368 2.4183 -29.8620
v  -3.9178 2.6686 -30.2098
v  5.7054 2.7032 -30.2098
v  5.5846 14.6299 -30.2098
v  -3.8403 14.6843 -30.2098
v  -49.2612 0.0000 52.3950
v  5.1188 0.0000 52.3950
v  5.2002 11.5847 52.3950
v  -49.2391 11.5427 52.3950
v  24.1286 0.0000 52.3950
v  53.4939 0.0000 52.3950
v  53.5719 11.6220 52.3950
v  24.1051 11.5993 52.3950
v  64.4101 0.0000 52.3950
v  93.3767 0.0000 52.3950
v  93.3144 11.6527 52.3950
v  64.4043 11.6304 52.3950
v  93.2852 17.1100 52.3950
v  64.4015 17.1100 52.3950
v  64.4038 12.5470 52.3950
v  93.3095 12.5668 52.3950
v  53.6087 17.1100 52.3950
v  24.0940 17.1100 52.3950
v  24.1033 12.5194 52.3950
v  53.5781 12.5396 52.3950
v  5.2390 17.1100 52.3950
v  -49.2285 17.1100 52.3950
v  -49.2374 12.4691 52.3950
v  5.2067 12.5064 52.3950
# 32 vertices

vn 0.0000 0.0000 1.0000
vn 0.0000 -0.0000 1.0000
vn -0.0000 -0.0000 1.0000
vn -0.0000 0.0000 1.0000
# 4 vertex normals

vt 0.2656 0.8489 0.0000
vt 0.0226 0.8489 0.0000
vt 0.0226 0.7296 0.0000
vt 0.2661 0.7290 0.0000
vt 0.7129 0.4909 0.0000
vt 0.7461 0.4911 0.0000
vt 0.7457 0.5526 0.0000
vt 0.7132 0.5528 0.0000
vt 0.9585 0.0970 0.0000
vt 0.7717 0.0970 0.0000
vt 0.7715 0.0373 0.0000
vt 0.9584 0.0375 0.0000
vt 0.7065 0.0970 0.0000
vt 0.6056 0.0970 0.0000
vt 0.6054 0.0371 0.0000
vt 0.7065 0.0372 0.0000
vt 0.5681 0.0970 0.0000
vt 0.4687 0.0970 0.0000
vt 0.4689 0.0370 0.0000
vt 0.5682 0.0371 0.0000
vt 0.4690 0.0089 0.0000
vt 0.5682 0.0089 0.0000
vt 0.5682 0.0324 0.0000
vt 0.4689 0.0323 0.0000
vt 0.6052 0.0089 0.0000
vt 0.7066 0.0089 0.0000
vt 0.7065 0.0325 0.0000
vt 0.6053 0.0324 0.0000
vt 0.7713 0.0089 0.0000
vt 0.9584 0.0089 0.0000
vt 0.9584 0.0328 0.0000
vt 0.7714 0.0326 0.0000
# 32 texture coords

g window
usemtl wire_143225087
f 9/5/7 10/6/7 11/7/7 12/8/7 
f 13/9/8 14/10/8 15/11/8 16/12/8 
f 17/13/9 18/14/9 19/15/9 20/16/9 
f 21/17/7 22/18/7 23/19/7 24/20/7 
f 25/21/9 26/22/9 27/23/9 28/24/9 
f 29/25/9 30/26/9 31/27/9 32/28/9 
f 33/29/7 34/30/7 35/31/7 36/32/7 
f 37/33/10 38/34/10 39/35/10 40/36/10 
# 8 polygons

#
# object door
#

v  66.4723 15.3997 -59.9491
v  77.3812 15.3997 -59.9491
v  77.3812 0.0000 -59.9491
v  66.4723 0.0000 -59.9491
# 4 vertices

vn 0.0000 0.0000 -1.0000
# 1 vertex normals

vt 0.9280 0.2047 0.0000
vt 0.8951 0.2047 0.0000
vt 0.8951 0.1135 0.0000
vt 0.9280 0.1135 0.0000
# 4 texture coords

g door
usemtl wire_143225087
f 41/37/11 42/38/11 43/39/11 44/40/11 
# 1 polygons

#
# object door2
#

v  77.4619 15.4223 -59.9491
v  88.3708 15.4223 -59.9491
v  88.3708 0.0000 -59.9491
v  77.4619 0.0000 -59.9491
# 4 vertices

vn 0.0000 0.0000 -1.0000
# 1 vertex normals

vt 0.8873 0.2048 0.0000
vt 0.8544 0.2048 0.0000
vt 0.8544 0.1138 0.0000
vt 0.8873 0.1138 0.0000
# 4 texture coords

g door2
usemtl wire_143225087
f 45/41/12 46/42/12 47/43/12 48/44/12 
# 1 polygons

#
# object door3
#

v  45.8793 14.7225 -30.1896
v  59.8708 14.7225 -30.1896
v  59.8708 0.0291 -30.1896
v  45.8793 0.0291 -30.1896
# 4 vertices

vn 0.0000 0.0000 -1.0000
# 1 vertex normals

vt 0.7951 0.3965 0.0000
vt 0.7621 0.3965 0.0000
vt 0.7621 0.3285 0.0000
vt 0.7951 0.3285 0.0000
# 4 texture coords

g door3
usemtl wire_143225087
f 49/45/13 50/46/13 51/47/13 52/48/13 
# 1 polygons

#
# object door4
#

v  -17.2415 14.7225 -30.1896
v  -5.5113 14.7225 -30.1896
v  -5.5113 0.0291 -30.1896
v  -17.2415 0.0291 -30.1896
# 4 vertices

vn 0.0000 0.0000 -1.0000
# 1 vertex normals

vt 0.9723 0.2026 0.0000
vt 0.9370 0.2026 0.0000
vt 0.9370 0.1158 0.0000
vt 0.9723 0.1158 0.0000
# 4 texture coords

g door4
usemtl wire_143225087
f 53/49/14 54/50/14 55/51/14 56/52/14 
# 1 polygons

#
# object door005
#

v  -23.3773 14.7225 -16.8354
v  -23.3773 14.7225 -28.5656
v  -23.3773 0.0291 -28.5656
v  -23.3773 0.0291 -16.8354
# 4 vertices

vn -1.0000 0.0000 -0.0000
# 1 vertex normals

vt 0.9626 0.2950 0.0000
vt 0.9349 0.2950 0.0000
vt 0.9349 0.2270 0.0000
vt 0.9626 0.2270 0.0000
# 4 texture coords

g door005
usemtl wire_143225087
f 57/53/15 58/54/15 59/55/15 60/56/15 
# 1 polygons

#
# object Object007
#

v  102.5146 0.0000 53.0840
v  102.5146 0.0000 -62.5881
v  -54.0847 0.0000 -62.5881
v  -54.0847 0.0000 53.0840
v  58.5103 7.3973 10.4032
v  67.2899 7.3973 10.4032
v  67.2899 7.3973 -10.5333
v  58.5103 7.3973 -10.5333
v  58.5103 7.1340 10.4032
v  67.2899 7.1340 10.4032
v  58.5103 7.1340 -10.5333
v  58.5103 7.3973 31.3415
v  67.2899 7.3973 31.3415
v  67.2899 7.3973 10.4050
v  58.5103 7.3973 10.4050
v  58.5103 7.1340 31.3415
v  67.2899 7.1340 31.3415
v  58.5103 7.1340 10.4050
v  58.5103 7.3973 52.3004
v  67.2899 7.3973 52.3004
v  67.2899 7.3973 31.3639
v  58.5103 7.3973 31.3639
v  58.5103 7.1340 52.3004
v  67.2899 7.1340 52.3004
v  58.5103 7.1340 31.3639
v  28.1679 7.3973 10.3209
v  36.9475 7.3973 10.3209
v  36.9475 7.3973 -10.6156
v  28.1679 7.3973 -10.6156
v  28.1679 7.1340 10.3209
v  36.9475 7.1340 10.3209
v  28.1679 7.1340 -10.6156
v  28.1679 7.3973 31.2954
v  36.9475 7.3973 31.2954
v  36.9475 7.3973 10.3589
v  28.1679 7.3973 10.3589
v  28.1679 7.1340 31.2954
v  36.9475 7.1340 31.2954
v  28.1679 7.1340 10.3589
v  28.1679 7.3973 52.3004
v  36.9475 7.3973 52.3004
v  36.9475 7.3973 31.3639
v  28.1679 7.3973 31.3639
v  28.1679 7.1340 52.3004
v  36.9475 7.1340 52.3004
v  28.1679 7.1340 31.3639
v  -2.8728 7.3973 52.3004
v  5.9068 7.3973 52.3004
v  5.9068 7.3973 31.3639
v  -2.8728 7.3973 31.3639
v  -2.8728 7.1340 52.3004
v  5.9068 7.1340 52.3004
v  -2.8728 7.1340 31.3639
v  97.0268 0.0000 52.1032
v  97.0268 15.4223 52.1032
v  97.0268 15.4223 -59.3343
v  97.0268 0.0000 -59.3343
v  -52.8418 0.0000 -59.3343
v  66.5531 0.0000 -59.3343
v  66.5531 15.4223 -59.3343
v  -52.8418 15.4223 -59.3343
v  97.0268 18.0188 -59.3343
v  88.3708 18.0188 -59.3343
v  88.3708 15.4223 -59.3343
v  97.0268 18.0188 52.1032
v  66.5531 18.0188 -59.3343
v  -52.8418 18.0188 -59.3343
v  88.3708 0.0000 -59.3343
v  66.5531 0.0000 -60.3343
v  66.5531 15.4223 -60.3343
v  97.7339 18.0188 -60.0414
v  88.3708 18.0188 -60.3343
v  97.7339 18.0188 52.8103
v  66.5531 18.0188 -60.3343
v  88.3708 15.4223 -60.3343
v  -53.5489 18.0188 -60.0414
v  88.3708 0.0000 -60.3343
v  61.8292 17.5891 -29.8386
v  59.6731 14.6951 -29.8620
v  59.6731 0.0000 -29.8620
v  61.8292 0.0000 -29.8386
v  59.6731 17.5891 -29.8620
v  46.1919 14.6951 -29.8620
v  46.1919 17.5891 -29.8620
v  61.1220 17.5891 -59.7100
v  61.1220 0.0000 -59.7100
v  61.1220 0.0000 -30.5810
v  61.1220 17.5891 -30.5810
v  46.1919 14.6951 -30.5810
v  46.1919 2.4147 -29.8620
v  46.1919 0.0000 -29.8620
v  46.1919 0.0000 -30.5810
v  62.1220 17.5891 -59.7100
v  59.6731 14.6951 -30.5810
v  59.6731 0.0000 -30.5810
v  59.6731 17.5891 -30.5810
v  46.1919 17.5891 -30.5810
v  6.7816 0.0000 -29.8620
v  44.0527 0.0000 -29.8620
v  44.0368 2.4183 -29.8620
v  6.7816 2.4810 -29.8620
v  6.7816 14.6951 -29.8620
v  43.9562 14.6951 -29.8620
v  43.9371 17.5891 -29.8620
v  6.7816 17.5891 -29.8620
v  6.7816 17.5891 -30.5810
v  43.8192 17.5891 -30.5810
v  6.7816 14.6951 -30.5810
v  43.9562 14.6951 -30.8097
v  44.0368 2.4183 -30.8097
v  6.7816 2.4810 -30.8097
v  -3.8403 14.6843 -29.8620
v  -3.8375 15.1293 -29.8620
v  -5.7120 14.6951 -29.8620
v  -17.0620 17.5891 -29.8620
v  -53.4336 17.5891 -29.8620
v  -17.0620 14.6951 -29.8620
v  -5.7120 17.5891 -29.8620
v  -3.8216 17.5891 -29.8620
v  -53.4336 0.0000 -29.8620
v  -17.0620 0.0000 -29.8620
v  -5.7120 0.0000 -30.5810
v  -5.7120 0.0000 -29.8620
v  -5.7120 2.6621 -29.8620
v  -17.0620 17.5891 -30.5810
v  -53.4336 17.5891 -30.5810
v  -17.0620 14.6951 -30.5810
v  -5.7120 14.6951 -30.5810
v  -5.7120 17.5891 -30.5810
v  -3.8552 17.5891 -30.5810
v  -17.0620 0.0000 -30.5810
v  -53.4336 0.0000 -30.5810
v  6.7816 14.6230 -29.8620
v  5.5576 17.3056 -29.8620
v  5.5846 14.6299 -29.8620
v  5.5547 17.5891 -29.8620
v  5.5766 17.5891 -30.5810
v  -3.9178 2.6686 -29.8620
v  5.7054 2.7032 -29.8620
v  6.7816 2.7071 -29.8620
v  -3.9351 0.0000 -29.8620
v  5.7327 0.0000 -29.8620
v  -3.8403 14.6843 -30.7676
v  5.5846 14.6299 -30.7676
v  -3.9178 2.6686 -30.7676
v  5.7054 2.7032 -30.7676
v  97.6929 17.7210 -30.0815
v  79.6684 17.7210 -30.0815
v  79.6684 -0.1486 -30.0815
v  97.6929 -0.1486 -30.0815
v  79.6684 17.7210 -31.0815
v  79.6684 -0.1486 -31.0815
v  97.6929 17.7210 -31.0815
v  5.8013 17.7210 -59.6224
v  5.8013 -0.1486 -59.6224
v  5.8013 -0.1486 -30.4199
v  5.8013 17.7210 -30.4199
v  6.8013 -0.1696 -30.4199
v  6.8013 17.7210 -30.4199
v  6.8013 17.7210 -59.6224
v  -23.6142 17.5469 52.7361
v  -23.6142 14.7415 -16.8797
v  -23.6142 -0.4090 -16.8797
v  -23.6142 -0.4090 52.7361
v  -23.6142 17.5469 -28.8041
v  -23.6142 17.5469 -30.2802
v  -23.6142 14.7415 -28.8041
v  -23.6142 17.5469 -16.8797
v  -23.6142 -0.4090 -30.2802
v  -23.6142 -0.4090 -28.8041
v  -22.6142 17.5469 52.7361
v  -22.6142 -0.4090 52.7361
v  -22.6142 -0.4090 -16.8797
v  -22.6142 14.7415 -16.8797
v  -22.6142 17.5469 -30.2802
v  -22.6142 17.5469 -28.8041
v  -22.6142 17.5469 -16.8797
v  -22.6142 14.7415 -28.8041
v  -22.6142 -0.4090 -28.8041
v  -22.6142 -0.4090 -30.2802
v  -53.5489 17.1100 52.8103
v  -53.5489 0.0000 52.8103
v  -49.2391 11.5427 52.8103
v  -49.2374 12.4691 52.8103
v  -53.5489 17.1100 -60.0414
v  -53.5489 0.0000 -60.0414
v  -52.8418 18.0188 52.1032
v  -53.5489 18.0188 52.8103
v  -49.2267 18.0188 52.8103
v  -49.3261 18.0188 52.1032
v  -49.2285 17.1100 52.8103
v  5.2067 12.5064 52.8103
v  5.2002 11.5847 52.8103
v  5.2390 17.1100 52.8103
v  5.1335 18.0188 52.8103
v  5.2457 18.0188 52.1032
v  24.1033 12.5194 52.8103
v  24.1051 11.5993 52.8103
v  24.0940 17.1100 52.8103
v  24.0120 18.0188 52.8103
v  24.0132 18.0188 52.1032
v  53.5781 12.5396 52.8103
v  53.5719 11.6220 52.8103
v  53.6087 17.1100 52.8103
v  53.4364 18.0188 52.8103
v  53.4342 18.0188 52.1032
v  64.4038 12.5470 52.8103
v  64.4043 11.6304 52.8103
v  64.4015 17.1100 52.8103
v  64.4011 18.0188 52.8103
v  64.3877 18.0188 52.1032
v  93.3095 12.5668 52.8103
v  93.3144 11.6527 52.8103
v  93.2852 17.1100 52.8103
v  93.2803 18.0188 52.8103
v  93.3304 18.0188 52.1032
v  97.7339 17.1100 52.8103
v  97.7339 0.0000 52.8103
v  -49.2612 0.0000 52.8103
v  5.1188 0.0000 52.8103
v  24.1286 0.0000 52.8103
v  53.4939 0.0000 52.8103
v  64.4101 0.0000 52.8103
v  93.3767 0.0000 52.8103
v  -49.2612 0.0000 51.2365
v  -49.2391 11.5427 51.2365
v  -49.2285 17.1100 51.2365
v  5.2390 17.1100 51.2365
v  5.2002 11.5847 51.2365
v  5.1188 0.0000 51.2365
v  24.1286 0.0000 51.2365
v  24.1051 11.5993 51.2365
v  24.0940 17.1100 51.2365
v  53.6087 17.1100 51.2365
v  53.5719 11.6220 51.2365
v  53.4939 0.0000 51.2365
v  64.4101 0.0000 51.2365
v  64.4043 11.6304 51.2365
v  64.4015 17.1100 51.2365
v  93.2852 17.1100 51.2365
v  93.3144 11.6527 51.2365
v  93.3767 0.0000 51.2365
v  93.3095 12.5668 51.2365
v  64.4038 12.5470 51.2365
v  53.5781 12.5396 51.2365
v  24.1033 12.5194 51.2365
v  5.2067 12.5064 51.2365
v  -49.2374 12.4691 51.2365
v  80.3541 8.1965 -26.3304
v  96.9078 8.1965 -26.3304
v  96.9078 8.1965 -30.0086
v  80.3541 8.1965 -30.0086
v  96.9078 11.2759 -30.0086
v  80.3541 11.2759 -30.0086
v  80.3541 11.2759 -26.3304
v  96.9078 11.2759 -26.3304
v  96.9078 14.3705 -26.3304
v  96.9078 14.3705 -30.0086
v  80.3541 14.3705 -30.0086
v  80.3541 14.3705 -26.3304
v  92.9390 5.5235 -30.0086
v  92.9390 5.5235 -26.3304
v  92.9390 17.2896 -26.3304
v  92.9390 17.2896 -30.0086
v  88.8162 17.2896 -26.3304
v  88.8162 17.2896 -30.0086
v  88.8162 5.5235 -30.0086
v  88.8162 5.5235 -26.3304
v  84.5137 17.2896 -30.0086
v  84.5137 5.5235 -30.0086
v  84.5137 5.5235 -26.3304
v  84.5137 17.2896 -26.3304
v  96.9078 0.0279 -30.0086
v  96.9078 0.0279 -26.3304
v  80.3541 0.0279 -26.3304
v  80.3541 0.0279 -30.0086
v  96.9078 5.5235 -30.0086
v  96.9078 5.5235 -26.3304
v  80.3541 5.5235 -26.3304
v  80.3541 5.5235 -30.0086
v  96.9078 17.2896 -26.3304
v  96.9078 17.2896 -30.0086
v  80.3541 17.2896 -30.0086
v  80.3541 17.2896 -26.3304
v  5.8301 0.0000 10.1910
v  5.8301 7.2142 10.1910
v  -2.7793 7.2142 10.1910
v  -2.7793 0.0000 10.1910
v  -2.7793 7.2142 5.5970
v  -2.7793 0.0000 5.5970
v  -2.8728 7.3973 10.2458
v  5.9068 7.3973 10.2458
v  5.9068 7.3973 -10.6907
v  -2.8728 7.3973 -10.6907
v  -2.8728 7.1340 10.2458
v  5.9068 7.1340 10.2458
v  -2.8728 7.1340 -10.6907
v  -2.7793 6.7641 -10.5868
v  -2.7793 0.0000 -10.5868
v  -2.7793 0.0000 -10.0159
v  -2.7793 6.7641 -10.0159
v  -2.2571 7.2142 -10.0159
v  -2.2571 6.7641 -10.0159
v  5.3078 6.7641 -10.0159
v  5.3078 7.2142 -10.0159
v  -2.7793 7.2142 -10.0159
v  -2.7793 7.2142 -10.5868
v  5.8301 6.7641 -10.0159
v  5.3078 0.0000 -10.0159
v  5.8301 0.0000 -10.0159
v  -2.2571 0.0000 -10.0159
v  5.8301 7.2142 -10.0159
v  5.3078 6.7641 -10.5868
v  5.3078 0.0000 -10.5868
v  -2.2571 6.7641 -10.5868
v  2.7434 7.4474 0.6636
v  3.3880 7.4474 1.0364
v  4.2995 7.4474 -0.2364
v  2.4764 7.4474 -0.2364
v  3.3880 7.4474 -1.5091
v  2.7434 7.4474 -1.1363
v  4.0325 7.4474 -1.1363
v  4.0325 7.4474 0.6636
v  3.5045 9.1884 0.2238
v  3.5045 9.1884 -0.6912
v  3.5045 7.4237 -0.6912
v  3.5045 7.4237 0.2238
v  3.9652 12.6348 -4.3096
v  2.8527 8.4831 -4.3096
v  2.8527 8.4831 3.7320
v  3.9652 12.6348 3.7320
v  1.4256 7.6483 -2.9545
v  -0.8994 7.4449 -2.9545
v  -0.8994 7.4449 2.6734
v  1.4256 7.6483 2.6734
v  -0.0280 7.4987 3.7788
v  -0.0280 7.4987 4.5331
v  1.2049 7.5951 4.5331
v  1.2049 7.5951 3.7788
v  5.8301 0.0000 31.2211
v  5.8301 7.2142 31.2211
v  -2.7793 7.2142 31.2211
v  -2.7793 0.0000 31.2211
v  -2.7793 7.2142 26.6271
v  -2.7793 0.0000 26.6271
v  -2.7793 6.7641 10.4432
v  -2.7793 0.0000 10.4432
v  -2.7793 0.0000 11.0141
v  -2.7793 6.7641 11.0141
v  -2.2571 7.2142 11.0141
v  -2.2571 6.7641 11.0141
v  5.3078 6.7641 11.0141
v  5.3078 7.2142 11.0141
v  -2.7793 7.2142 11.0141
v  -2.7793 7.2142 10.4432
v  5.8301 6.7641 11.0141
v  5.3078 0.0000 11.0141
v  5.8301 0.0000 11.0141
v  -2.2571 0.0000 11.0141
v  5.8301 7.2142 11.0141
v  5.3078 6.7641 10.4432
v  5.3078 0.0000 10.4432
v  -2.2571 6.7641 10.4432
v  5.8301 0.0000 52.1841
v  5.8301 7.2142 52.1841
v  -2.7793 7.2142 52.1841
v  -2.7793 0.0000 52.1841
v  -2.7793 7.2142 47.5901
v  -2.7793 0.0000 47.5901
v  -2.7793 6.7641 31.4063
v  -2.7793 0.0000 31.4063
v  -2.7793 0.0000 31.9772
v  -2.7793 6.7641 31.9772
v  -2.2571 7.2142 31.9772
v  -2.2571 6.7641 31.9772
v  5.3078 6.7641 31.9772
v  5.3078 7.2142 31.9772
v  -2.7793 7.2142 31.9772
v  -2.7793 7.2142 31.4063
v  5.8301 6.7641 31.9772
v  5.3078 0.0000 31.9772
v  5.8301 0.0000 31.9772
v  -2.2571 0.0000 31.9772
v  5.8301 7.2142 31.9772
v  5.3078 6.7641 31.4063
v  5.3078 0.0000 31.4063
v  -2.2571 6.7641 31.4063
v  36.8387 0.0000 31.2211
v  36.8387 7.2142 31.2211
v  28.2293 7.2142 31.2211
v  28.2293 0.0000 31.2211
v  28.2293 7.2142 26.6271
v  28.2293 0.0000 26.6271
v  28.2293 6.7641 10.4432
v  28.2293 0.0000 10.4432
v  28.2293 0.0000 11.0141
v  28.2293 6.7641 11.0141
v  28.7515 7.2142 11.0141
v  28.7515 6.7641 11.0141
v  36.3164 6.7641 11.0141
v  36.3164 7.2142 11.0141
v  28.2293 7.2142 11.0141
v  28.2293 7.2142 10.4432
v  36.8387 6.7641 11.0141
v  36.3164 0.0000 11.0141
v  36.8387 0.0000 11.0141
v  28.7515 0.0000 11.0141
v  36.8387 7.2142 11.0141
v  36.3164 6.7641 10.4432
v  36.3164 0.0000 10.4432
v  28.7515 6.7641 10.4432
v  36.8387 0.0000 10.1910
v  36.8387 7.2142 10.1910
v  28.2293 7.2142 10.1910
v  28.2293 0.0000 10.1910
v  28.2293 7.2142 5.5970
v  28.2293 0.0000 5.5970
v  28.2293 6.7641 -10.5868
v  28.2293 0.0000 -10.5868
v  28.2293 0.0000 -10.0159
v  28.2293 6.7641 -10.0159
v  28.7515 7.2142 -10.0159
v  28.7515 6.7641 -10.0159
v  36.3164 6.7641 -10.0159
v  36.3164 7.2142 -10.0159
v  28.2293 7.2142 -10.0159
v  28.2293 7.2142 -10.5868
v  36.8387 6.7641 -10.0159
v  36.3164 0.0000 -10.0159
v  36.8387 0.0000 -10.0159
v  28.7515 0.0000 -10.0159
v  36.8387 7.2142 -10.0159
v  36.3164 6.7641 -10.5868
v  36.3164 0.0000 -10.5868
v  28.7515 6.7641 -10.5868
v  34.0417 7.4474 -4.2018
v  34.7655 7.4474 -4.0267
v  35.2793 7.4474 -5.5055
v  33.5308 7.4474 -4.9894
v  34.0448 7.4474 -6.4681
v  33.5321 7.4474 -5.9280
v  34.7685 7.4474 -6.2930
v  35.2781 7.4474 -4.5668
v  34.6426 9.1884 -4.8237
v  34.3836 9.1884 -5.7012
v  34.3836 7.4237 -5.7012
v  34.6426 7.4237 -4.8237
v  33.8126 12.6348 -9.3313
v  32.7457 8.4831 -9.0163
v  35.0225 8.4831 -1.3038
v  36.0894 12.6348 -1.6188
v  32.4342 7.6483 -3.4500
v  30.1092 7.4449 -3.4500
v  30.1092 7.4449 2.1779
v  32.4342 7.6483 2.1779
v  30.9806 7.4987 3.2833
v  30.9806 7.4987 4.0376
v  32.2135 7.5951 4.0376
v  32.2135 7.5951 3.2833
v  33.4928 7.4474 4.6889
v  33.9824 7.4474 5.2499
v  35.2561 7.4474 4.3396
v  33.5307 7.4474 3.7509
v  34.8044 7.4474 2.8407
v  34.0739 7.4474 2.9854
v  35.2940 7.4474 3.4017
v  34.7128 7.4474 5.1051
v  34.3654 9.1884 4.5032
v  34.6608 9.1884 3.6372
v  34.6608 7.4237 3.6372
v  34.3654 7.4237 4.5032
v  36.2423 12.6348 0.3893
v  35.1894 8.4831 0.0301
v  32.5928 8.4831 7.6409
v  33.6457 12.6348 8.0001
v  2.8124 7.4474 45.5453
v  3.2439 7.4474 46.1522
v  4.6018 7.4474 45.3731
v  2.9434 7.4474 44.6157
v  4.3013 7.4474 43.8367
v  3.5601 7.4474 43.9081
v  4.7327 7.4474 44.4436
v  3.9850 7.4474 46.0808
v  3.7018 9.1884 45.4423
v  4.0819 9.1884 44.6100
v  4.0819 7.4237 44.6100
v  3.7018 7.4237 45.4423
v  5.9725 12.6348 41.5447
v  4.9606 8.4831 41.0825
v  1.6200 8.4831 48.3974
v  2.6320 12.6348 48.8596
v  1.4256 7.6483 37.3589
v  -0.8994 7.4449 37.3589
v  -0.8994 7.4449 42.9868
v  1.4256 7.6483 42.9868
v  -0.0280 7.4987 44.0922
v  -0.0280 7.4987 44.8465
v  1.2049 7.5951 44.8465
v  1.2049 7.5951 44.0922
v  33.4552 7.4474 25.4618
v  33.8867 7.4474 26.0687
v  35.2446 7.4474 25.2896
v  33.5862 7.4474 24.5322
v  34.9442 7.4474 23.7532
v  34.2029 7.4474 23.8246
v  35.3756 7.4474 24.3601
v  34.6278 7.4474 25.9973
v  34.3446 9.1884 25.3588
v  34.7247 9.1884 24.5265
v  34.7247 7.4237 24.5265
v  34.3446 7.4237 25.3588
v  36.6154 12.6348 21.4612
v  35.6034 8.4831 20.9991
v  32.2628 8.4831 28.3140
v  33.2748 12.6348 28.7761
v  33.1567 7.6483 17.7381
v  30.8316 7.4449 17.7381
v  30.8316 7.4449 23.3660
v  33.1567 7.6483 23.3660
v  30.6148 7.4987 24.0087
v  30.6148 7.4987 24.7630
v  31.8477 7.5951 24.7630
v  31.8477 7.5951 24.0087
v  36.8387 0.0000 52.1841
v  36.8387 7.2142 52.1841
v  28.2293 7.2142 52.1841
v  28.2293 0.0000 52.1841
v  28.2293 7.2142 47.5901
v  28.2293 0.0000 47.5901
v  28.2293 6.7641 31.4063
v  28.2293 0.0000 31.4063
v  28.2293 0.0000 31.9772
v  28.2293 6.7641 31.9772
v  28.7515 7.2142 31.9772
v  28.7515 6.7641 31.9772
v  36.3164 6.7641 31.9772
v  36.3164 7.2142 31.9772
v  28.2293 7.2142 31.9772
v  28.2293 7.2142 31.4063
v  36.8387 6.7641 31.9772
v  36.3164 0.0000 31.9772
v  36.8387 0.0000 31.9772
v  28.7515 0.0000 31.9772
v  36.8387 7.2142 31.9772
v  36.3164 6.7641 31.4063
v  36.3164 0.0000 31.4063
v  28.7515 6.7641 31.4063
v  67.0957 0.0000 31.2211
v  67.0957 7.2142 31.2211
v  58.4863 7.2142 31.2211
v  58.4863 0.0000 31.2211
v  58.4863 7.2142 26.6271
v  58.4863 0.0000 26.6271
v  58.4863 6.7641 10.4432
v  58.4863 0.0000 10.4432
v  58.4863 0.0000 11.0141
v  58.4863 6.7641 11.0141
v  59.0085 7.2142 11.0141
v  59.0085 6.7641 11.0141
v  66.5734 6.7641 11.0141
v  66.5734 7.2142 11.0141
v  58.4863 7.2142 11.0141
v  58.4863 7.2142 10.4432
v  67.0957 6.7641 11.0141
v  66.5734 0.0000 11.0141
v  67.0957 0.0000 11.0141
v  59.0085 0.0000 11.0141
v  67.0957 7.2142 11.0141
v  66.5734 6.7641 10.4432
v  66.5734 0.0000 10.4432
v  59.0085 6.7641 10.4432
v  67.0957 0.0000 10.1910
v  67.0957 7.2142 10.1910
v  58.4863 7.2142 10.1910
v  58.4863 0.0000 10.1910
v  58.4863 7.2142 5.5970
v  58.4863 0.0000 5.5970
v  58.4863 6.7641 -10.5868
v  58.4863 0.0000 -10.5868
v  58.4863 0.0000 -10.0159
v  58.4863 6.7641 -10.0159
v  59.0085 7.2142 -10.0159
v  59.0085 6.7641 -10.0159
v  66.5734 6.7641 -10.0159
v  66.5734 7.2142 -10.0159
v  58.4863 7.2142 -10.0159
v  58.4863 7.2142 -10.5868
v  67.0957 6.7641 -10.0159
v  66.5734 0.0000 -10.0159
v  67.0957 0.0000 -10.0159
v  59.0085 0.0000 -10.0159
v  67.0957 7.2142 -10.0159
v  66.5734 6.7641 -10.5868
v  66.5734 0.0000 -10.5868
v  59.0085 6.7641 -10.5868
v  64.0090 7.4474 21.6539
v  64.6536 7.4474 22.0267
v  65.5651 7.4474 20.7539
v  63.7420 7.4474 20.7539
v  64.6536 7.4474 19.4812
v  64.0090 7.4474 19.8540
v  65.2981 7.4474 19.8540
v  65.2981 7.4474 21.6539
v  64.7701 9.1884 21.2141
v  64.7701 9.1884 20.2991
v  64.7701 7.4237 20.2991
v  64.7701 7.4237 21.2141
v  65.2308 12.6348 16.6807
v  64.1183 8.4831 16.6807
v  64.1183 8.4831 24.7223
v  65.2308 12.6348 24.7223
v  62.6912 7.6483 18.0358
v  60.3662 7.4449 18.0358
v  60.3662 7.4449 23.6637
v  62.6912 7.6483 23.6637
v  61.2376 7.4987 24.7691
v  61.2376 7.4987 25.5234
v  62.4705 7.5951 25.5234
v  62.4705 7.5951 24.7691
v  64.4799 7.4474 38.1166
v  65.2037 7.4474 38.2917
v  65.7176 7.4474 36.8129
v  63.9691 7.4474 37.3291
v  64.4830 7.4474 35.8503
v  63.9703 7.4474 36.3904
v  65.2067 7.4474 36.0254
v  65.7163 7.4474 37.7517
v  65.0808 9.1884 37.4948
v  64.8218 9.1884 36.6172
v  64.8218 7.4237 36.6172
v  65.0808 7.4237 37.4948
v  64.2509 12.6348 32.9871
v  63.1839 8.4831 33.3021
v  65.4607 8.4831 41.0147
v  66.5277 12.6348 40.6997
v  62.8724 7.6483 38.8685
v  60.5474 7.4449 38.8685
v  60.5474 7.4449 44.4964
v  62.8724 7.6483 44.4964
v  61.4188 7.4987 45.6018
v  61.4188 7.4987 46.3561
v  62.6517 7.5951 46.3561
v  62.6517 7.5951 45.6018
v  63.9310 7.4474 47.0073
v  64.4207 7.4474 47.5683
v  65.6943 7.4474 46.6580
v  63.9689 7.4474 46.0693
v  65.2426 7.4474 45.1592
v  64.5121 7.4474 45.3038
v  65.7322 7.4474 45.7201
v  65.1510 7.4474 47.4236
v  64.8036 9.1884 46.8216
v  65.0990 9.1884 45.9556
v  65.0990 7.4237 45.9556
v  64.8036 7.4237 46.8216
v  66.6805 12.6348 42.7077
v  65.6276 8.4831 42.3485
v  63.0310 8.4831 49.9593
v  64.0839 12.6348 50.3186
v  67.0957 0.0000 52.1841
v  67.0957 7.2142 52.1841
v  58.4863 7.2142 52.1841
v  58.4863 0.0000 52.1841
v  58.4863 7.2142 47.5901
v  58.4863 0.0000 47.5901
v  58.4863 6.7641 31.4063
v  58.4863 0.0000 31.4063
v  58.4863 0.0000 31.9772
v  58.4863 6.7641 31.9772
v  59.0085 7.2142 31.9772
v  59.0085 6.7641 31.9772
v  66.5734 6.7641 31.9772
v  66.5734 7.2142 31.9772
v  58.4863 7.2142 31.9772
v  58.4863 7.2142 31.4063
v  67.0957 6.7641 31.9772
v  66.5734 0.0000 31.9772
v  67.0957 0.0000 31.9772
v  59.0085 0.0000 31.9772
v  67.0957 7.2142 31.9772
v  66.5734 6.7641 31.4063
v  66.5734 0.0000 31.4063
v  59.0085 6.7641 31.4063
v  -2.8728 7.3973 31.2257
v  5.9068 7.3973 31.2257
v  5.9068 7.3973 10.2892
v  -2.8728 7.3973 10.2892
v  -2.8728 7.1340 31.2257
v  5.9068 7.1340 31.2257
v  -2.8728 7.1340 10.2892
# 690 vertices

vn 0.0000 1.0000 -0.0000
vn -0.5774 0.5774 0.5774
vn 0.0000 0.7071 0.7071
vn -0.7071 0.7071 -0.0000
vn -0.7071 0.0000 0.7071
vn 0.0000 0.0000 1.0000
vn -1.0000 0.0000 -0.0000
vn 1.0000 0.0000 -0.0000
vn 0.0000 -1.0000 -0.0000
vn -0.0109 0.0000 0.9999
vn -0.0000 1.0000 -0.0000
vn -1.0000 -0.0044 -0.0000
vn 0.0025 1.0000 0.0000
vn -0.0086 -1.0000 -0.0000
vn 1.0000 -0.0043 -0.0000
vn -1.0000 -0.0068 -0.0000
vn -0.0054 1.0000 0.0000
vn 0.0000 0.0000 -1.0000
vn -0.0000 0.0000 1.0000
vn 0.0000 -0.0000 1.0000
vn -0.0000 -0.0000 1.0000
vn 1.0000 -0.0013 -0.0000
vn -1.0000 0.0047 -0.0000
vn 1.0000 0.0014 -0.0000
vn -1.0000 0.0045 -0.0000
vn 1.0000 0.0003 -0.0000
vn -1.0000 -0.0036 -0.0000
vn 0.0012 -1.0000 -0.0000
vn -0.0010 1.0000 -0.0000
vn -1.0000 0.0047 0.0000
vn -0.9659 0.2588 -0.0000
vn -0.0872 0.9962 -0.0000
vn -0.0779 0.9970 -0.0000
vn -0.9464 0.0000 -0.3229
vn -0.9316 0.1766 -0.3178
vn -0.9096 0.0000 -0.4154
vn -0.8953 0.1766 -0.4089
vn -0.1295 0.9916 -0.0000
vn -0.1160 0.9933 -0.0000
# 39 vertex normals

vt 0.4470 0.5545 0.0000
vt 0.0114 0.5545 0.0000
vt 0.0114 0.0162 0.0000
vt 0.4470 0.0162 0.0000
vt 0.3472 0.7887 0.0000
vt 0.2913 0.7887 0.0000
vt 0.2913 0.7051 0.0000
vt 0.3472 0.7051 0.0000
vt 0.9952 0.6176 0.0000
vt 0.9393 0.6176 0.0000
vt 0.9393 0.5340 0.0000
vt 0.9952 0.5340 0.0000
vt 0.9930 0.7070 0.0000
vt 0.9371 0.7070 0.0000
vt 0.9371 0.6234 0.0000
vt 0.9930 0.6234 0.0000
vt 0.9916 0.7956 0.0000
vt 0.9357 0.7956 0.0000
vt 0.9357 0.7120 0.0000
vt 0.9916 0.7120 0.0000
vt 0.7217 0.7966 0.0000
vt 0.7217 0.7407 0.0000
vt 0.8053 0.7407 0.0000
vt 0.8053 0.7966 0.0000
vt 0.9058 0.9905 0.0000
vt 0.9058 0.9346 0.0000
vt 0.9894 0.9346 0.0000
vt 0.9894 0.9905 0.0000
vt 0.7133 0.7219 0.0000
vt 0.7133 0.7778 0.0000
vt 0.6297 0.7778 0.0000
vt 0.6297 0.7219 0.0000
vt 0.8487 0.2112 0.0000
vt 0.8487 0.2899 0.0000
vt 0.4675 0.2899 0.0000
vt 0.4675 0.2112 0.0000
vt 0.9002 0.3417 0.0000
vt 0.9039 0.7535 0.0000
vt 0.8245 0.7543 0.0000
vt 0.8208 0.3423 0.0000
vt 0.8255 0.8595 0.0000
vt 0.8121 0.8596 0.0000
vt 0.8118 0.8296 0.0000
vt 0.8251 0.8295 0.0000
vt 0.8460 0.3031 0.0000
vt 0.4648 0.3031 0.0000
vt 0.8111 0.7544 0.0000
vt 0.8074 0.3424 0.0000
vt 0.9047 0.8289 0.0000
vt 0.9049 0.8587 0.0000
vt 0.9073 0.7535 0.0000
vt 0.9081 0.8330 0.0000
vt 0.9047 0.8331 0.0000
vt 0.9748 0.3459 0.0000
vt 0.9749 0.3540 0.0000
vt 0.9740 0.3540 0.0000
vt 0.9742 0.3465 0.0000
vt 0.9690 0.3474 0.0000
vt 0.9696 0.3480 0.0000
vt 0.9705 0.4446 0.0000
vt 0.9699 0.4452 0.0000
vt 0.9746 0.3729 0.0000
vt 0.9738 0.3729 0.0000
vt 0.9087 0.9083 0.0000
vt 0.9053 0.9083 0.0000
vt 0.9721 0.4764 0.0000
vt 0.9727 0.4770 0.0000
vt 0.9456 0.8931 0.0000
vt 0.9458 0.8308 0.0000
vt 0.9485 0.8308 0.0000
vt 0.9483 0.8931 0.0000
vt 0.3826 0.8772 0.0000
vt 0.3683 0.8489 0.0000
vt 0.3683 0.7054 0.0000
vt 0.3826 0.7054 0.0000
vt 0.3683 0.8772 0.0000
vt 0.2802 0.8489 0.0000
vt 0.2802 0.8772 0.0000
vt 0.4706 0.4042 0.0000
vt 0.4706 0.3135 0.0000
vt 0.5711 0.3135 0.0000
vt 0.5711 0.4042 0.0000
vt 0.9400 0.3869 0.0000
vt 0.9394 0.3869 0.0000
vt 0.9394 0.3710 0.0000
vt 0.9394 0.3679 0.0000
vt 0.9400 0.3679 0.0000
vt 0.9588 0.4107 0.0000
vt 0.9571 0.4109 0.0000
vt 0.9569 0.3926 0.0000
vt 0.9585 0.3924 0.0000
vt 0.9394 0.4176 0.0000
vt 0.9394 0.3986 0.0000
vt 0.9400 0.3986 0.0000
vt 0.9400 0.4176 0.0000
vt 0.9618 0.4063 0.0000
vt 0.9617 0.4082 0.0000
vt 0.9611 0.4076 0.0000
vt 0.9611 0.4063 0.0000
vt 0.9614 0.3946 0.0000
vt 0.9620 0.3946 0.0000
vt 0.0226 0.7054 0.0000
vt 0.2662 0.7054 0.0000
vt 0.2661 0.7290 0.0000
vt 0.0226 0.7296 0.0000
vt 0.0226 0.8489 0.0000
vt 0.2656 0.8489 0.0000
vt 0.2655 0.8772 0.0000
vt 0.0226 0.8772 0.0000
vt 0.9620 0.3605 0.0000
vt 0.9626 0.3605 0.0000
vt 0.9620 0.3926 0.0000
vt 0.9614 0.3925 0.0000
vt 0.9565 0.3863 0.0000
vt 0.9559 0.3863 0.0000
vt 0.9559 0.3826 0.0000
vt 0.9565 0.3826 0.0000
vt 0.2802 0.7054 0.0000
vt 0.2802 0.7290 0.0000
vt 0.7132 0.5528 0.0000
vt 0.7132 0.5551 0.0000
vt 0.7067 0.5529 0.0000
vt 0.6676 0.5678 0.0000
vt 0.5421 0.5678 0.0000
vt 0.6676 0.5529 0.0000
vt 0.7067 0.5678 0.0000
vt 0.7132 0.5678 0.0000
vt 0.5421 0.4772 0.0000
vt 0.6676 0.4772 0.0000
vt 0.9359 0.6018 0.0000
vt 0.9340 0.6018 0.0000
vt 0.9337 0.5910 0.0000
vt 0.9279 0.8927 0.0000
vt 0.9260 0.8927 0.0000
vt 0.9275 0.7943 0.0000
vt 0.9295 0.7944 0.0000
vt 0.9324 0.5424 0.0000
vt 0.9316 0.5117 0.0000
vt 0.9335 0.5117 0.0000
vt 0.9344 0.5424 0.0000
vt 0.9255 0.9234 0.0000
vt 0.9274 0.9234 0.0000
vt 0.9476 0.3568 0.0000
vt 0.9477 0.3552 0.0000
vt 0.9483 0.3552 0.0000
vt 0.9482 0.3568 0.0000
vt 0.9301 0.4524 0.0000
vt 0.9320 0.4523 0.0000
vt 0.5396 0.4772 0.0000
vt 0.5396 0.5678 0.0000
vt 0.7498 0.5525 0.0000
vt 0.7498 0.5678 0.0000
vt 0.7456 0.5663 0.0000
vt 0.7457 0.5526 0.0000
vt 0.7456 0.5678 0.0000
vt 0.9479 0.3661 0.0000
vt 0.9473 0.3660 0.0000
vt 0.9473 0.3650 0.0000
vt 0.9479 0.3650 0.0000
vt 0.7067 0.4909 0.0000
vt 0.7129 0.4909 0.0000
vt 0.7461 0.4911 0.0000
vt 0.7498 0.4911 0.0000
vt 0.7067 0.4772 0.0000
vt 0.7128 0.4772 0.0000
vt 0.7462 0.4772 0.0000
vt 0.7498 0.4772 0.0000
vt 0.7519 0.4702 0.0000
vt 0.6897 0.4702 0.0000
vt 0.6897 0.3782 0.0000
vt 0.7519 0.3782 0.0000
vt 0.9428 0.3888 0.0000
vt 0.9420 0.3888 0.0000
vt 0.9420 0.3657 0.0000
vt 0.9428 0.3657 0.0000
vt 0.9428 0.4045 0.0000
vt 0.9420 0.4045 0.0000
vt 0.5836 0.4706 0.0000
vt 0.5836 0.3786 0.0000
vt 0.6844 0.3786 0.0000
vt 0.6844 0.4706 0.0000
vt 0.9604 0.8246 0.0000
vt 0.9605 0.8969 0.0000
vt 0.9577 0.8969 0.0000
vt 0.9577 0.8247 0.0000
vt 0.9700 0.8183 0.0000
vt 0.9728 0.8183 0.0000
vt 0.9728 0.8973 0.0000
vt 0.9701 0.8973 0.0000
vt 0.3995 0.6862 0.0000
vt 0.0801 0.6680 0.0000
vt 0.0798 0.5642 0.0000
vt 0.3991 0.5632 0.0000
vt 0.0255 0.6873 0.0000
vt 0.0187 0.6874 0.0000
vt 0.0254 0.6681 0.0000
vt 0.0802 0.6872 0.0000
vt 0.0166 0.5644 0.0000
vt 0.0248 0.5642 0.0000
vt 0.9396 0.8884 0.0000
vt 0.9369 0.8885 0.0000
vt 0.9351 0.8160 0.0000
vt 0.9378 0.8159 0.0000
vt 0.9479 0.3683 0.0000
vt 0.9487 0.3683 0.0000
vt 0.9489 0.3879 0.0000
vt 0.9480 0.3879 0.0000
vt 0.9620 0.4811 0.0000
vt 0.9611 0.4811 0.0000
vt 0.9611 0.4798 0.0000
vt 0.9620 0.4798 0.0000
vt 0.9620 0.4695 0.0000
vt 0.9612 0.4695 0.0000
vt 0.9489 0.3982 0.0000
vt 0.9481 0.3983 0.0000
vt 0.9617 0.4091 0.0000
vt 0.9625 0.4091 0.0000
vt 0.9490 0.4178 0.0000
vt 0.9482 0.4179 0.0000
vt 0.7816 0.5764 0.0000
vt 0.7568 0.5764 0.0000
vt 0.7568 0.7351 0.0000
vt 0.7816 0.7351 0.0000
vt 0.9732 0.0089 0.0000
vt 0.9732 0.0970 0.0000
vt 0.9584 0.0375 0.0000
vt 0.9584 0.0328 0.0000
vt 0.8415 0.1082 0.0000
vt 0.8415 0.1956 0.0000
vt 0.4555 0.1956 0.0000
vt 0.4555 0.1082 0.0000
vt 0.9646 0.3465 0.0000
vt 0.9652 0.3458 0.0000
vt 0.9652 0.3495 0.0000
vt 0.9646 0.3495 0.0000
vt 0.9449 0.3554 0.0000
vt 0.9455 0.3560 0.0000
vt 0.9459 0.4527 0.0000
vt 0.9453 0.4533 0.0000
vt 0.9732 0.0042 0.0000
vt 0.9584 0.0089 0.0000
vt 0.9584 0.0042 0.0000
vt 0.8415 0.2003 0.0000
vt 0.4555 0.2003 0.0000
vt 0.7714 0.0326 0.0000
vt 0.7715 0.0373 0.0000
vt 0.7713 0.0089 0.0000
vt 0.7717 0.0042 0.0000
vt 0.9656 0.3967 0.0000
vt 0.9650 0.3968 0.0000
vt 0.7065 0.0325 0.0000
vt 0.7065 0.0372 0.0000
vt 0.7066 0.0089 0.0000
vt 0.7069 0.0042 0.0000
vt 0.9658 0.4131 0.0000
vt 0.9652 0.4131 0.0000
vt 0.6053 0.0324 0.0000
vt 0.6054 0.0371 0.0000
vt 0.6052 0.0089 0.0000
vt 0.6058 0.0042 0.0000
vt 0.9660 0.4386 0.0000
vt 0.9654 0.4386 0.0000
vt 0.5682 0.0324 0.0000
vt 0.5682 0.0371 0.0000
vt 0.5682 0.0089 0.0000
vt 0.5682 0.0042 0.0000
vt 0.9661 0.4481 0.0000
vt 0.9655 0.4481 0.0000
vt 0.4689 0.0323 0.0000
vt 0.4689 0.0370 0.0000
vt 0.4690 0.0089 0.0000
vt 0.4690 0.0042 0.0000
vt 0.9663 0.4731 0.0000
vt 0.9657 0.4732 0.0000
vt 0.4537 0.0089 0.0000
vt 0.4537 0.0970 0.0000
vt 0.4537 0.0042 0.0000
vt 0.9663 0.4770 0.0000
vt 0.9657 0.4764 0.0000
vt 0.9585 0.0970 0.0000
vt 0.7717 0.0970 0.0000
vt 0.7065 0.0970 0.0000
vt 0.6056 0.0970 0.0000
vt 0.5681 0.0970 0.0000
vt 0.4687 0.0970 0.0000
vt 0.7813 0.4520 0.0000
vt 0.7813 0.4064 0.0000
vt 0.7716 0.4064 0.0000
vt 0.7716 0.4520 0.0000
vt 0.7949 0.4057 0.0000
vt 0.7846 0.4057 0.0000
vt 0.7846 0.4610 0.0000
vt 0.7949 0.4610 0.0000
vt 0.5916 0.5931 0.0000
vt 0.5916 0.5832 0.0000
vt 0.6363 0.5832 0.0000
vt 0.6363 0.5931 0.0000
vt 0.5916 0.6128 0.0000
vt 0.5816 0.6128 0.0000
vt 0.5816 0.5931 0.0000
vt 0.6463 0.5931 0.0000
vt 0.6463 0.6128 0.0000
vt 0.6363 0.6128 0.0000
vt 0.7232 0.6231 0.0000
vt 0.7241 0.6866 0.0000
vt 0.5787 0.6866 0.0000
vt 0.5787 0.6231 0.0000
vt 0.4444 0.7082 0.0000
vt 0.4444 0.6859 0.0000
vt 0.5453 0.6859 0.0000
vt 0.5453 0.7082 0.0000
vt 0.4444 0.5911 0.0000
vt 0.4221 0.6859 0.0000
vt 0.4221 0.5911 0.0000
vt 0.5453 0.5911 0.0000
vt 0.5678 0.5911 0.0000
vt 0.5678 0.6859 0.0000
vt 0.6090 0.3657 0.0000
vt 0.6092 0.3240 0.0000
vt 0.7141 0.3247 0.0000
vt 0.7139 0.3664 0.0000
vt 0.7407 0.3249 0.0000
vt 0.7405 0.3666 0.0000
vt 0.9213 0.3335 0.0000
vt 0.8654 0.3335 0.0000
vt 0.8654 0.2499 0.0000
vt 0.9213 0.2499 0.0000
vt 0.9551 0.3944 0.0000
vt 0.9562 0.3948 0.0000
vt 0.9559 0.3950 0.0000
vt 0.9545 0.3943 0.0000
vt 0.9538 0.3946 0.0000
vt 0.9543 0.3948 0.0000
vt 0.9547 0.4136 0.0000
vt 0.9541 0.4136 0.0000
vt 0.9543 0.3939 0.0000
vt 0.9553 0.3941 0.0000
vt 0.9548 0.4142 0.0000
vt 0.9535 0.4130 0.0000
vt 0.9536 0.4138 0.0000
vt 0.9563 0.3951 0.0000
vt 0.9545 0.4144 0.0000
vt 0.9555 0.4137 0.0000
vt 0.9535 0.4134 0.0000
vt 0.9552 0.3949 0.0000
vt 0.4888 0.4839 0.0000
vt 0.4811 0.4821 0.0000
vt 0.4766 0.5030 0.0000
vt 0.4947 0.4944 0.0000
vt 0.4902 0.5156 0.0000
vt 0.4951 0.5075 0.0000
vt 0.4825 0.5138 0.0000
vt 0.4757 0.4898 0.0000
vt 0.5209 0.5046 0.0000
vt 0.5110 0.5046 0.0000
vt 0.5110 0.4797 0.0000
vt 0.5209 0.4797 0.0000
vt 0.4677 0.4709 0.0000
vt 0.4677 0.4154 0.0000
vt 0.5469 0.4154 0.0000
vt 0.5469 0.4709 0.0000
vt 0.4666 0.5740 0.0000
vt 0.4666 0.5414 0.0000
vt 0.5268 0.5414 0.0000
vt 0.5268 0.5740 0.0000
vt 0.5268 0.4779 0.0000
vt 0.5392 0.4779 0.0000
vt 0.5392 0.5041 0.0000
vt 0.5268 0.5041 0.0000
vt 0.9002 0.9487 0.0000
vt 0.8443 0.9487 0.0000
vt 0.8443 0.8651 0.0000
vt 0.9002 0.8651 0.0000
# 373 texture coords

g Object007
usemtl wire_143225087
f 61/57/16 62/58/16 63/59/16 64/60/16 
f 65/61/17 66/62/18 67/63/16 68/64/19 
f 69/61/20 70/62/21 66/62/18 65/61/17 
f 71/64/22 69/61/20 65/61/17 68/64/19 
f 72/65/17 73/66/18 74/67/16 75/68/19 
f 76/65/20 77/66/21 73/66/18 72/65/17 
f 78/68/22 76/65/20 72/65/17 75/68/19 
f 79/69/17 80/70/18 81/71/16 82/72/19 
f 83/69/20 84/70/21 80/70/18 79/69/17 
f 85/72/22 83/69/20 79/69/17 82/72/19 
f 86/73/17 87/74/18 88/75/16 89/76/19 
f 90/73/20 91/74/21 87/74/18 86/73/17 
f 92/76/22 90/73/20 86/73/17 89/76/19 
f 93/77/17 94/78/18 95/79/16 96/80/19 
f 97/77/20 98/78/21 94/78/18 93/77/17 
f 99/80/22 97/77/20 93/77/17 96/80/19 
f 100/81/17 101/82/18 102/83/16 103/84/19 
f 104/81/20 105/82/21 101/82/18 100/81/17 
f 106/84/22 104/81/20 100/81/17 103/84/19 
f 107/85/17 108/86/18 109/87/16 110/88/19 
f 111/85/20 112/86/21 108/86/18 107/85/17 
f 113/88/22 111/85/20 107/85/17 110/88/19 
f 114/89/22 115/90/22 116/91/22 117/92/22 
f 118/93/21 119/94/21 120/95/21 121/96/21 
f 116/97/21 122/98/21 123/99/21 124/100/21 
f 116/91/22 115/90/22 125/101/22 122/102/22 
f 123/99/21 126/103/21 120/95/21 124/100/21 
f 120/95/21 126/103/21 127/104/21 121/96/21 
f 128/105/21 117/106/21 116/97/21 124/100/21 
f 119/94/23 129/107/23 130/108/23 120/109/23 
f 131/110/16 132/111/16 123/112/16 122/113/16 
f 131/114/16 122/115/16 125/116/16 133/117/16 
f 132/111/16 134/118/16 126/119/16 123/112/16 
f 135/120/24 124/121/24 120/109/24 130/108/24 
f 127/122/16 126/119/16 134/118/16 136/123/16 
f 135/124/22 137/125/22 128/126/22 124/127/22 
f 138/128/25 139/129/25 140/130/25 141/131/25 
f 138/128/25 142/132/25 139/129/25 
f 143/133/21 139/129/21 142/132/21 144/134/21 
f 145/135/22 146/136/22 147/137/22 148/138/22 
f 149/139/23 143/140/23 150/141/23 151/142/23 
f 149/139/23 151/142/23 152/143/23 
f 153/144/16 145/145/16 148/146/16 138/147/16 
f 140/148/22 139/149/22 154/150/22 155/151/22 
f 142/152/16 138/153/16 148/154/16 156/155/16 
f 142/152/16 156/155/16 157/156/16 144/157/16 
f 143/140/24 149/139/24 154/150/24 139/149/24 
f 158/158/21 159/159/21 160/160/21 161/161/21 
f 162/162/21 163/163/21 164/164/21 165/165/21 
f 166/166/26 165/167/26 164/168/26 167/169/26 
f 165/170/22 166/171/22 168/172/22 162/173/22 
f 151/174/21 150/175/21 160/160/21 159/159/21 
f 143/133/21 144/134/21 164/164/21 163/163/21 
f 164/168/16 144/157/16 157/156/16 167/169/16 
f 143/133/21 163/163/21 160/160/21 150/175/21 
f 160/160/27 163/163/27 169/163/27 170/160/27 
f 161/161/28 160/160/28 170/160/28 171/161/28 
f 172/176/21 173/177/21 174/178/21 
f 175/179/21 176/180/21 177/181/21 
f 178/182/21 175/179/21 177/181/21 174/178/21 
f 178/182/21 174/178/21 173/177/21 179/183/21 
f 177/181/21 176/180/21 180/184/21 181/185/21 
f 182/186/22 183/187/22 184/188/22 
f 175/189/16 185/190/16 186/191/16 176/192/16 
f 174/193/24 177/194/24 187/195/24 188/196/24 
f 189/197/16 185/190/16 175/189/16 178/198/16 
f 190/199/26 189/200/26 178/201/26 179/202/26 
f 187/195/23 177/194/23 181/203/23 191/204/23 
f 192/205/22 180/184/22 176/180/22 186/206/22 
f 193/207/21 165/208/21 194/209/21 195/210/21 
f 194/209/21 165/208/21 196/211/21 
f 165/212/16 166/213/16 197/214/16 196/215/16 
f 195/210/21 194/209/21 173/177/21 172/176/21 
f 194/209/21 196/211/21 179/183/21 173/177/21 
f 196/215/16 197/214/16 190/199/16 179/202/16 
f 184/216/21 198/217/21 172/176/21 174/178/21 
f 199/218/21 200/219/21 193/207/21 195/210/21 
f 183/220/21 201/221/21 198/217/21 184/216/21 
f 201/221/21 202/222/21 199/218/21 198/217/21 
f 202/222/21 158/223/21 200/219/21 199/218/21 
f 182/186/22 184/188/22 174/193/22 188/196/22 
f 195/210/29 172/176/29 203/176/29 204/210/29 
f 172/176/30 198/217/30 205/217/30 203/176/30 
f 199/218/31 195/210/31 204/210/31 206/218/31 
f 198/217/32 199/218/32 206/218/32 205/217/32 
f 207/224/21 208/225/21 209/226/21 210/227/21 
f 208/228/22 211/229/22 212/230/22 209/231/22 
f 211/229/16 208/228/16 207/232/16 213/233/16 
f 214/234/22 215/235/22 216/236/22 217/237/22 
f 218/238/21 219/239/21 217/240/21 216/241/21 
f 217/242/16 219/243/16 220/244/16 214/245/16 
f 221/246/22 222/247/22 223/248/22 224/249/22 
f 225/250/22 226/251/22 227/252/22 
f 227/252/22 222/247/22 228/253/22 225/250/22 
f 221/246/22 228/253/22 222/247/22 
f 227/252/22 226/251/22 229/254/22 230/255/22 
f 231/256/21 221/257/21 224/258/21 232/259/21 
f 233/260/33 223/261/33 222/262/33 234/263/33 
f 235/264/16 226/265/16 225/266/16 236/267/16 
f 237/268/16 236/267/16 225/266/16 228/269/16 
f 222/262/24 227/270/24 238/271/24 234/263/24 
f 228/269/16 221/272/16 231/273/16 237/268/16 
f 230/274/21 239/275/21 238/271/21 227/270/21 
f 240/276/33 229/277/33 226/278/33 235/279/33 
f 241/280/21 242/281/21 243/282/21 244/283/21 
f 242/284/22 241/285/22 245/286/22 246/287/22 
f 247/288/16 248/289/16 249/290/16 250/291/16 
f 248/292/16 247/293/16 127/294/16 136/295/16 
f 248/296/21 241/280/21 251/297/21 249/298/21 
f 248/299/22 136/300/22 245/286/22 241/285/22 
f 252/301/34 244/283/34 243/282/34 253/302/34 
f 254/303/21 255/304/21 249/298/21 251/297/21 
f 255/305/16 256/306/16 250/291/16 249/290/16 
f 257/307/35 252/301/35 253/302/35 258/308/35 
f 254/303/21 259/309/21 260/310/21 255/304/21 
f 260/311/16 261/312/16 256/306/16 255/305/16 
f 262/313/21 257/307/21 258/308/21 263/314/21 
f 259/309/21 264/315/21 265/316/21 260/310/21 
f 265/317/16 266/318/16 261/312/16 260/311/16 
f 267/319/21 262/313/21 263/314/21 268/320/21 
f 264/315/21 269/321/21 270/322/21 265/316/21 
f 270/323/16 271/324/16 266/318/16 265/317/16 
f 272/325/36 267/319/36 268/320/36 273/326/36 
f 274/327/34 275/328/34 270/322/34 269/321/34 
f 275/329/16 276/330/16 271/324/16 270/323/16 
f 277/331/21 272/325/21 273/326/21 278/332/21 
f 277/331/21 133/333/21 275/328/21 274/327/21 
f 275/329/16 133/334/16 125/335/16 276/330/16 
f 242/281/21 279/336/21 243/282/21 
f 280/337/35 281/338/35 258/308/35 253/302/35 
f 282/339/21 283/340/21 268/320/21 263/314/21 
f 273/326/35 284/341/35 278/332/35 
f 277/331/21 274/327/21 272/325/21 
f 269/321/21 264/315/21 262/313/21 267/319/21 
f 259/309/21 254/303/21 252/301/21 257/307/21 
f 244/283/21 251/297/21 241/280/21 
f 243/282/37 279/336/37 285/336/37 286/282/37 
f 254/303/24 251/297/24 287/297/24 288/303/24 
f 280/337/38 253/302/38 289/302/38 290/337/38 
f 258/308/39 281/338/39 291/338/39 292/308/39 
f 264/315/24 259/309/24 293/309/24 294/315/24 
f 282/339/40 263/314/40 295/314/40 296/339/40 
f 268/320/41 283/340/41 297/340/41 298/320/41 
f 274/327/24 269/321/24 299/321/24 300/327/24 
f 284/341/42 273/326/42 301/326/42 302/341/42 
f 253/302/43 243/282/43 286/282/43 289/302/43 
f 263/314/43 258/308/43 292/308/43 295/314/43 
f 273/326/43 268/320/43 298/320/43 301/326/43 
f 272/325/42 274/327/42 300/327/42 303/325/42 
f 269/321/41 267/319/41 304/319/41 299/321/41 
f 267/319/44 272/325/44 303/325/44 304/319/44 
f 262/313/40 264/315/40 294/315/40 305/313/40 
f 259/309/39 257/307/39 306/307/39 293/309/39 
f 257/307/44 262/313/44 305/313/44 306/307/44 
f 252/301/45 254/303/45 288/303/45 307/301/45 
f 251/297/37 244/283/37 308/283/37 287/297/37 
f 244/283/44 252/301/44 307/301/44 308/283/44 
f 309/342/16 310/343/16 311/344/16 312/345/16 
f 313/344/16 314/345/16 315/342/16 316/343/16 
f 317/343/16 318/344/16 319/345/16 320/342/16 
f 321/346/22 322/347/22 323/348/22 324/349/22 
f 325/348/22 326/349/22 327/346/22 328/347/22 
f 329/349/22 330/346/22 331/347/22 332/348/22 
f 333/350/24 334/351/24 335/352/24 336/353/24 
f 333/350/23 337/354/23 338/355/23 334/356/23 
f 335/357/22 339/358/22 340/359/22 336/353/22 
f 334/360/21 338/361/21 339/362/21 335/363/21 
f 339/351/16 338/354/16 337/350/16 340/359/16 
f 341/364/16 342/365/16 343/366/16 344/367/16 
f 337/368/23 342/365/23 341/369/23 338/370/23 
f 340/371/33 343/366/33 342/365/33 337/368/33 
f 339/372/22 344/373/22 343/366/22 340/371/22 
f 345/374/21 346/375/21 347/376/21 348/377/21 
f 349/378/22 350/379/22 348/377/22 347/376/22 
f 351/380/16 352/381/16 353/382/16 354/383/16 
f 355/380/21 356/381/21 352/381/21 351/380/21 
f 357/383/22 355/380/22 351/380/22 354/383/22 
f 358/384/22 359/385/22 360/386/22 361/387/22 
f 362/388/21 363/389/21 364/390/21 365/391/21 
f 358/384/22 361/387/22 366/392/22 367/393/22 
f 368/394/21 364/390/21 369/395/21 370/396/21 
f 360/386/21 371/397/21 363/389/21 361/387/21 
f 361/387/21 363/389/21 362/388/21 366/392/21 
f 365/391/21 364/390/21 368/394/21 372/398/21 
f 369/395/22 364/390/22 373/399/22 374/400/22 
f 363/389/24 375/401/24 373/399/24 364/390/24 
f 376/402/24 377/403/24 378/404/24 379/405/24 
f 379/405/24 378/404/24 380/406/24 381/407/24 
f 380/406/24 378/404/24 382/408/24 
f 383/409/24 378/404/24 377/403/24 
f 384/410/22 385/411/22 386/412/22 387/413/22 
f 388/414/46 389/415/46 390/416/46 391/417/46 
f 392/418/47 393/419/47 394/420/47 395/421/47 
f 396/422/48 397/423/48 398/424/48 399/425/48 
f 400/374/21 401/375/21 402/376/21 403/377/21 
f 404/378/22 405/379/22 403/377/22 402/376/22 
f 406/384/22 407/385/22 408/386/22 409/387/22 
f 410/388/21 411/389/21 412/390/21 413/391/21 
f 406/384/22 409/387/22 414/392/22 415/393/22 
f 416/394/21 412/390/21 417/395/21 418/396/21 
f 408/386/21 419/397/21 411/389/21 409/387/21 
f 409/387/21 411/389/21 410/388/21 414/392/21 
f 413/391/21 412/390/21 416/394/21 420/398/21 
f 417/395/22 412/390/22 421/399/22 422/400/22 
f 411/389/24 423/401/24 421/399/24 412/390/24 
f 424/374/21 425/375/21 426/376/21 427/377/21 
f 428/378/22 429/379/22 427/377/22 426/376/22 
f 430/384/22 431/385/22 432/386/22 433/387/22 
f 434/388/21 435/389/21 436/390/21 437/391/21 
f 430/384/22 433/387/22 438/392/22 439/393/22 
f 440/394/21 436/390/21 441/395/21 442/396/21 
f 432/386/21 443/397/21 435/389/21 433/387/21 
f 433/387/21 435/389/21 434/388/21 438/392/21 
f 437/391/21 436/390/21 440/394/21 444/398/21 
f 441/395/22 436/390/22 445/399/22 446/400/22 
f 435/389/24 447/401/24 445/399/24 436/390/24 
f 448/374/21 449/375/21 450/376/21 451/377/21 
f 452/378/22 453/379/22 451/377/22 450/376/22 
f 454/384/22 455/385/22 456/386/22 457/387/22 
f 458/388/21 459/389/21 460/390/21 461/391/21 
f 454/384/22 457/387/22 462/392/22 463/393/22 
f 464/394/21 460/390/21 465/395/21 466/396/21 
f 456/386/21 467/397/21 459/389/21 457/387/21 
f 457/387/21 459/389/21 458/388/21 462/392/21 
f 461/391/21 460/390/21 464/394/21 468/398/21 
f 465/395/22 460/390/22 469/399/22 470/400/22 
f 459/389/24 471/401/24 469/399/24 460/390/24 
f 472/374/21 473/375/21 474/376/21 475/377/21 
f 476/378/22 477/379/22 475/377/22 474/376/22 
f 478/384/22 479/385/22 480/386/22 481/387/22 
f 482/388/21 483/389/21 484/390/21 485/391/21 
f 478/384/22 481/387/22 486/392/22 487/393/22 
f 488/394/21 484/390/21 489/395/21 490/396/21 
f 480/386/21 491/397/21 483/389/21 481/387/21 
f 481/387/21 483/389/21 482/388/21 486/392/21 
f 485/391/21 484/390/21 488/394/21 492/398/21 
f 489/395/22 484/390/22 493/399/22 494/400/22 
f 483/389/24 495/401/24 493/399/24 484/390/24 
f 496/402/24 497/403/24 498/404/24 499/405/24 
f 499/405/24 498/404/24 500/406/24 501/407/24 
f 500/406/24 498/404/24 502/408/24 
f 503/409/24 498/404/24 497/403/24 
f 504/410/22 505/411/22 506/412/22 507/413/22 
f 508/414/46 509/415/46 510/416/46 511/417/46 
f 512/418/47 513/419/47 514/420/47 515/421/47 
f 516/422/48 517/423/48 518/424/48 519/425/48 
f 520/402/16 521/403/16 522/404/16 523/405/16 
f 523/405/16 522/404/16 524/406/16 525/407/16 
f 524/406/16 522/404/16 526/408/16 
f 527/409/16 522/404/16 521/403/16 
f 528/410/49 529/411/49 530/412/49 531/413/49 
f 532/414/50 533/415/50 534/416/50 535/417/50 
f 536/402/24 537/403/24 538/404/24 539/405/24 
f 539/405/24 538/404/24 540/406/24 541/407/24 
f 540/406/24 538/404/24 542/408/24 
f 543/409/24 538/404/24 537/403/24 
f 544/410/22 545/411/22 546/412/22 547/413/22 
f 548/414/46 549/415/46 550/416/46 551/417/46 
f 552/418/47 553/419/47 554/420/47 555/421/47 
f 556/422/48 557/423/48 558/424/48 559/425/48 
f 560/402/16 561/403/16 562/404/16 563/405/16 
f 563/405/16 562/404/16 564/406/16 565/407/16 
f 564/406/16 562/404/16 566/408/16 
f 567/409/16 562/404/16 561/403/16 
f 568/410/51 569/411/51 570/412/51 571/413/51 
f 572/414/52 573/415/52 574/416/52 575/417/52 
f 576/418/53 577/419/53 578/420/53 579/421/53 
f 580/422/54 581/423/54 582/424/54 583/425/54 
f 584/374/21 585/375/21 586/376/21 587/377/21 
f 588/378/22 589/379/22 587/377/22 586/376/22 
f 590/384/22 591/385/22 592/386/22 593/387/22 
f 594/388/21 595/389/21 596/390/21 597/391/21 
f 590/384/22 593/387/22 598/392/22 599/393/22 
f 600/394/21 596/390/21 601/395/21 602/396/21 
f 592/386/21 603/397/21 595/389/21 593/387/21 
f 593/387/21 595/389/21 594/388/21 598/392/21 
f 597/391/21 596/390/21 600/394/21 604/398/21 
f 601/395/22 596/390/22 605/399/22 606/400/22 
f 595/389/24 607/401/24 605/399/24 596/390/24 
f 608/374/21 609/375/21 610/376/21 611/377/21 
f 612/378/22 613/379/22 611/377/22 610/376/22 
f 614/384/22 615/385/22 616/386/22 617/387/22 
f 618/388/21 619/389/21 620/390/21 621/391/21 
f 614/384/22 617/387/22 622/392/22 623/393/22 
f 624/394/21 620/390/21 625/395/21 626/396/21 
f 616/386/21 627/397/21 619/389/21 617/387/21 
f 617/387/21 619/389/21 618/388/21 622/392/21 
f 621/391/21 620/390/21 624/394/21 628/398/21 
f 625/395/22 620/390/22 629/399/22 630/400/22 
f 619/389/24 631/401/24 629/399/24 620/390/24 
f 632/374/21 633/375/21 634/376/21 635/377/21 
f 636/378/22 637/379/22 635/377/22 634/376/22 
f 638/384/22 639/385/22 640/386/22 641/387/22 
f 642/388/21 643/389/21 644/390/21 645/391/21 
f 638/384/22 641/387/22 646/392/22 647/393/22 
f 648/394/21 644/390/21 649/395/21 650/396/21 
f 640/386/21 651/397/21 643/389/21 641/387/21 
f 641/387/21 643/389/21 642/388/21 646/392/21 
f 645/391/21 644/390/21 648/394/21 652/398/21 
f 649/395/22 644/390/22 653/399/22 654/400/22 
f 643/389/24 655/401/24 653/399/24 644/390/24 
f 656/402/24 657/403/24 658/404/24 659/405/24 
f 659/405/24 658/404/24 660/406/24 661/407/24 
f 660/406/24 658/404/24 662/408/24 
f 663/409/24 658/404/24 657/403/24 
f 664/410/22 665/411/22 666/412/22 667/413/22 
f 668/414/46 669/415/46 670/416/46 671/417/46 
f 672/418/47 673/419/47 674/420/47 675/421/47 
f 676/422/48 677/423/48 678/424/48 679/425/48 
f 680/402/24 681/403/24 682/404/24 683/405/24 
f 683/405/24 682/404/24 684/406/24 685/407/24 
f 684/406/24 682/404/24 686/408/24 
f 687/409/24 682/404/24 681/403/24 
f 688/410/22 689/411/22 690/412/22 691/413/22 
f 692/414/46 693/415/46 694/416/46 695/417/46 
f 696/418/47 697/419/47 698/420/47 699/421/47 
f 700/422/48 701/423/48 702/424/48 703/425/48 
f 704/402/16 705/403/16 706/404/16 707/405/16 
f 707/405/16 706/404/16 708/406/16 709/407/16 
f 708/406/16 706/404/16 710/408/16 
f 711/409/16 706/404/16 705/403/16 
f 712/410/49 713/411/49 714/412/49 715/413/49 
f 716/414/50 717/415/50 718/416/50 719/417/50 
f 720/374/21 721/375/21 722/376/21 723/377/21 
f 724/378/22 725/379/22 723/377/22 722/376/22 
f 726/384/22 727/385/22 728/386/22 729/387/22 
f 730/388/21 731/389/21 732/390/21 733/391/21 
f 726/384/22 729/387/22 734/392/22 735/393/22 
f 736/394/21 732/390/21 737/395/21 738/396/21 
f 728/386/21 739/397/21 731/389/21 729/387/21 
f 729/387/21 731/389/21 730/388/21 734/392/21 
f 733/391/21 732/390/21 736/394/21 740/398/21 
f 737/395/22 732/390/22 741/399/22 742/400/22 
f 731/389/24 743/401/24 741/399/24 732/390/24 
f 744/426/17 745/427/18 746/428/16 747/429/19 
f 748/426/20 749/427/21 745/427/18 744/426/17 
f 750/429/22 748/426/20 744/426/17 747/429/19 
# 309 polygons - 28 triangles

